…
## 2. What is mean total number of steps taken per day?

To address this question, I use a pipeline as follows:


```r
stepsperday<-activity %>% group_by(Date) %>% summarize(SumDay=sum(Steps,na.rm=1),MeanDay=round(mean(Steps,na.rm=1),1),MedianDay=median(Steps,na.rm=1))
print(stepsperday)
```

```
## # A tibble: 61 × 4
##          Date SumDay MeanDay MedianDay
##        <date>  <int>   <dbl>     <dbl>
## 1  2012-10-01      0     NaN        NA
## 2  2012-10-02    126     0.4         0
## 3  2012-10-03  11352    39.4         0
## 4  2012-10-04  12116    42.1         0
## 5  2012-10-05  13294    46.2         0
## 6  2012-10-06  15420    53.5         0
## 7  2012-10-07  11015    38.2         0
## 8  2012-10-08      0     NaN        NA
## 9  2012-10-09  12811    44.5         0
## 10 2012-10-10   9900    34.4         0
## # ... with 51 more rows
```
…
### 4.3 New dataset with the missing data filled in

As in point 2., I calculate the sum, mean and median per day with the Dyplr-pipeline:


```r
stepsperdayfilled<-activityfilled %>% group_by(Date) %>% summarize(SumDay=sum(Steps,na.rm=1),MeanDay=round(mean(Steps,na.rm=1),1),MedianDay=median(Steps,na.rm=1))
print(stepsperdayfilled)
```

```
## # A tibble: 61 × 4
##          Date   SumDay MeanDay MedianDay
##        <date>    <dbl>   <dbl>     <dbl>
## 1  2012-10-01 10766.83    37.4  34.11321
## 2  2012-10-02   126.00     0.4   0.00000
## 3  2012-10-03 11352.00    39.4   0.00000
## 4  2012-10-04 12116.00    42.1   0.00000
## 5  2012-10-05 13294.00    46.2   0.00000
## 6  2012-10-06 15420.00    53.5   0.00000
## 7  2012-10-07 11015.00    38.2   0.00000
## 8  2012-10-08 10765.98    37.4  34.11321
## 9  2012-10-09 12811.00    44.5   0.00000
## 10 2012-10-10  9900.00    34.4   0.00000
## # ... with 51 more rows
```
…
